@startuml
class Exemplaire {
Disponibilité : {Emprunté, Réservé, Libre} ;
Etat : {neuf, bon, abîmé, perdu} ;
Num_exemplaire : integer ;
Prix : integer
}

class Ressource {
Code : integer #unique
Titre : string
Date_apparition : date
Editeur : string 
Classification : string
}

class Genre{
Nom : string
} 

class Livre{
ISBN : string 
Résumé : string 
Langue : string 
}

class Musique{
Longueur : durée 
}

class Film{
Langue : string 
Longueur : durée 
}

class Contributeur{
Nom : string 
Prénom : string 
Date_naissance : date
Nationalité : string 
}

class Contribution{
Type : {livre, film, musique}
}

class Auteur{
}

class Interprète{
}

class Compositeur{
}

class Réalisateur{
}

class Compte_utilisateur{
login : string 
pwd : string 
Mail : string 
}

class Personnel{
Nom : string 
Prénom : string 
Adresse : string
}

class Adhérent{
Num_carte : integer #unique
Num_tél : string 
Adhésion : {passée, actuelle} 
Nb_emprunt : integer 
Nb_sanctions : integer 
Eligibilité : {OK, suspendu, blacklisté} 
}

class Emprunt{
Date_emprunt : date ;
Date_retour : date ;
Durée : durée ;
Retard : (Méthode) 
}

class Sanction{
id_sanction : integer;
}

class Remboursement{
Etat : {payé, non payé}
}

class Suspension{
Début : date 
Durée : durée 
}

class Réservation{
date_max_retrait: date
}

class Profil{
Nom : string
}

class Top_Semaine{
Semaine : integer
}


Contributeur <|-r- Acteur
Contributeur <|-- Interprète
Contributeur <|-- Compositeur
Contributeur <|-- Auteur
Contributeur <|-- Réalisateur

Ressource <|-- Film
Ressource <|-- Livre
Ressource <|-- Musique

Compte_utilisateur <|-- Adhérent
Compte_utilisateur <|-- Personnel

Sanction <|-- Remboursement
Sanction <|-l- Suspension
Sanction "0..2" -r- "1" Emprunt : peut entraîner


Ressource "1..*" -l- "1..*" Contributeur 
(Contributeur, Ressource) . Contribution

Ressource *-u- Exemplaire
Ressource "1..*" -- "1" Genre : possède

Emprunt "*" -- "1" Exemplaire
Réservation "1" -- "1" Emprunt : concerne
Adhérent "1" -l- "*" Emprunt :effectue
Adhérent "1" -l- "*" Réservation : effectue

Profil "1..*" -- "1..*" Genre : intéresse
Adhérent "1..*" -- "*" Profil : correspond à

Personnel "1" -- "*" Ressource : ajouter
Personnel "1..*" -- "*" Ressource : modifier
Personnel "1" -- "*" Ressource : supprimer

Personnel "1..*" -- "*" Exemplaire : ajouter
Personnel "1" -- "*" Exemplaire : enlever

Adhérent "1" -r- "*" Personnel : blacklister

Top_Semaine "1" -- "1..*" Ressource
@enduml